…
``` r
class(ames_split)
```

    ## [1] "initial_split" "mc_split"      "rsplit"

It is an ‘rsplit’ object. Keep that in mind. We can use tidy function on
it.

``` r
tidy(ames_split)
```

    ## # A tibble: 2,930 × 2
    ##      Row Data    
    ##    <int> <chr>   
    ##  1     1 Analysis
    ##  2     2 Analysis
    ##  3     3 Analysis
    ##  4     4 Analysis
    ##  5     5 Analysis
    ##  6     6 Analysis
    ##  7     7 Analysis
    ##  8     8 Analysis
    ##  9     9 Analysis
    ## 10    10 Analysis
    ## # … with 2,920 more rows
    ## # ℹ Use `print(n = ...)` to see more rows
…
Now we fit.

``` r
lm_fit <- fit(object = lm_wflow, 
              data = ames_train)
print(tidy(lm_fit), n = 10)
```

    ## # A tibble: 35 × 5
    ##    term                             estimate std.error statistic  p.value
    ##    <chr>                               <dbl>     <dbl>     <dbl>    <dbl>
    ##  1 (Intercept)                     -1.22      0.234      -5.21   2.00e- 7
    ##  2 Gr_Liv_Area                      0.662     0.0144     46.0    0       
    ##  3 Year_Built                       0.00221   0.000118   18.8    3.61e-73
    ##  4 Neighborhood_College_Creek       0.00832   0.00837     0.994  3.20e- 1
    ##  5 Neighborhood_Old_Town           -0.0243    0.00842    -2.89   3.91e- 3
    ##  6 Neighborhood_Edwards            -0.0432    0.00773    -5.60   2.43e- 8
    ##  7 Neighborhood_Somerset            0.0406    0.00983     4.14   3.65e- 5
    ##  8 Neighborhood_Northridge_Heights  0.121     0.0103     11.8    3.76e-31
    ##  9 Neighborhood_Gilbert            -0.0409    0.00965    -4.24   2.32e- 5
    ## 10 Neighborhood_Sawyer              0.000693  0.00832     0.0833 9.34e- 1
    ## # … with 25 more rows
    ## # ℹ Use `print(n = ...)` to see more rows
…
Fit again using new recipe.

``` r
lm_wflow <- 
  workflow() %>% 
  add_model(spec = lm_model) %>% 
  add_recipe(recipe = ames_rec)

lm_fit <- fit(object = lm_wflow, 
              data = ames_train)
tidy(lm_fit)
```

    ## # A tibble: 72 × 5
    ##    term                            estimate std.error statistic   p.value
    ##    <chr>                              <dbl>     <dbl>     <dbl>     <dbl>
    ##  1 (Intercept)                     -0.757    0.297       -2.55  1.08e-  2
    ##  2 Gr_Liv_Area                      0.668    0.0157      42.5   3.53e-291
    ##  3 Year_Built                       0.00200  0.000138    14.5   1.89e- 45
    ##  4 Neighborhood_College_Creek      -0.0177   0.0328      -0.541 5.89e-  1
    ##  5 Neighborhood_Old_Town           -0.0445   0.0124      -3.59  3.33e-  4
    ##  6 Neighborhood_Edwards            -0.0630   0.0269      -2.34  1.92e-  2
    ##  7 Neighborhood_Somerset            0.0700   0.0190       3.68  2.38e-  4
    ##  8 Neighborhood_Northridge_Heights  0.129    0.0272       4.76  2.11e-  6
    ##  9 Neighborhood_Gilbert             0.0215   0.0214       1.00  3.16e-  1
    ## 10 Neighborhood_Sawyer             -0.0832   0.0256      -3.25  1.15e-  3
    ## # … with 62 more rows
    ## # ℹ Use `print(n = ...)` to see more rows

# Metrics

``` r
ames_test_res <- predict(object = lm_fit, 
                         new_data = ames_test %>% select(-Sale_Price))
ames_test_res
```

    ## # A tibble: 588 × 1
    ##    .pred
    ##    <dbl>
    ##  1  5.26
    ##  2  5.25
    ##  3  5.13
    ##  4  5.16
    ##  5  4.99
    ##  6  5.49
    ##  7  5.43
    ##  8  5.56
    ##  9  5.46
    ## 10  5.36
    ## # … with 578 more rows
    ## # ℹ Use `print(n = ...)` to see more rows

Bind predictions with observed values.

``` r
ames_test_res <- bind_cols(ames_test_res, ames_test %>% select(Sale_Price))
ames_test_res
```

    ## # A tibble: 588 × 2
    ##    .pred Sale_Price
    ##    <dbl>      <dbl>
    ##  1  5.26       5.25
    ##  2  5.25       5.26
    ##  3  5.13       5.23
    ##  4  5.16       5.15
    ##  5  4.99       4.98
    ##  6  5.49       5.49
    ##  7  5.43       5.34
    ##  8  5.56       5.51
    ##  9  5.46       5.51
    ## 10  5.36       5.31
    ## # … with 578 more rows
    ## # ℹ Use `print(n = ...)` to see more rows
…
``` r
ames_folds$splits[[1]]
```

    ## <Analysis/Assess/Total>
    ## <2107/235/2342>

This object is both rsplit object as well as vfold_split object. One can
apply analysis or assessment function to get to the resampled data.

``` r
analysis(ames_folds$splits[[1]])
```

    ## # A tibble: 2,107 × 74
    ##    MS_Sub…¹ MS_Zo…² Lot_F…³ Lot_A…⁴ Street Alley Lot_S…⁵ Land_…⁶ Utili…⁷ Lot_C…⁸
    ##    <fct>    <fct>     <dbl>   <int> <fct>  <fct> <fct>   <fct>   <fct>   <fct>  
    ##  1 One_Sto… Reside…      80   11622 Pave   No_A… Regular Lvl     AllPub  Inside 
    ##  2 One_Sto… Reside…      70    8400 Pave   No_A… Regular Lvl     AllPub  Corner 
    ##  3 One_Sto… Reside…      70   10500 Pave   No_A… Regular Lvl     AllPub  FR2    
    ##  4 Two_Sto… Reside…      21    1680 Pave   No_A… Regular Lvl     AllPub  Inside 
    ##  5 Two_Sto… Reside…      21    1680 Pave   No_A… Regular Lvl     AllPub  Inside 
    ##  6 One_Sto… Reside…      53    4043 Pave   No_A… Regular Lvl     AllPub  Inside 
    ##  7 One_Sto… Reside…      24    2280 Pave   No_A… Regular Lvl     AllPub  FR2    
    ##  8 One_Sto… Reside…      55    7892 Pave   No_A… Regular Lvl     AllPub  Inside 
    ##  9 One_Sto… Reside…      50    7175 Pave   No_A… Regular Lvl     AllPub  Inside 
    ## 10 One_Sto… Reside…      70    9800 Pave   No_A… Regular Lvl     AllPub  Corner 
    ## # … with 2,097 more rows, 64 more variables: Land_Slope <fct>,
    ## #   Neighborhood <fct>, Condition_1 <fct>, Condition_2 <fct>, Bldg_Type <fct>,
    ## #   House_Style <fct>, Overall_Cond <fct>, Year_Built <int>,
    ## #   Year_Remod_Add <int>, Roof_Style <fct>, Roof_Matl <fct>,
    ## #   Exterior_1st <fct>, Exterior_2nd <fct>, Mas_Vnr_Type <fct>,
    ## #   Mas_Vnr_Area <dbl>, Exter_Cond <fct>, Foundation <fct>, Bsmt_Cond <fct>,
    ## #   Bsmt_Exposure <fct>, BsmtFin_Type_1 <fct>, BsmtFin_SF_1 <dbl>, …
    ## # ℹ Use `print(n = ...)` to see more rows, and `colnames()` to see all variable names

Or using tidyverse dialect:

``` r
ames_folds$splits[[1]] %>% 
  analysis()
```

    ## # A tibble: 2,107 × 74
    ##    MS_Sub…¹ MS_Zo…² Lot_F…³ Lot_A…⁴ Street Alley Lot_S…⁵ Land_…⁶ Utili…⁷ Lot_C…⁸
    ##    <fct>    <fct>     <dbl>   <int> <fct>  <fct> <fct>   <fct>   <fct>   <fct>  
    ##  1 One_Sto… Reside…      80   11622 Pave   No_A… Regular Lvl     AllPub  Inside 
    ##  2 One_Sto… Reside…      70    8400 Pave   No_A… Regular Lvl     AllPub  Corner 
    ##  3 One_Sto… Reside…      70   10500 Pave   No_A… Regular Lvl     AllPub  FR2    
    ##  4 Two_Sto… Reside…      21    1680 Pave   No_A… Regular Lvl     AllPub  Inside 
    ##  5 Two_Sto… Reside…      21    1680 Pave   No_A… Regular Lvl     AllPub  Inside 
    ##  6 One_Sto… Reside…      53    4043 Pave   No_A… Regular Lvl     AllPub  Inside 
    ##  7 One_Sto… Reside…      24    2280 Pave   No_A… Regular Lvl     AllPub  FR2    
    ##  8 One_Sto… Reside…      55    7892 Pave   No_A… Regular Lvl     AllPub  Inside 
    ##  9 One_Sto… Reside…      50    7175 Pave   No_A… Regular Lvl     AllPub  Inside 
    ## 10 One_Sto… Reside…      70    9800 Pave   No_A… Regular Lvl     AllPub  Corner 
    ## # … with 2,097 more rows, 64 more variables: Land_Slope <fct>,
    ## #   Neighborhood <fct>, Condition_1 <fct>, Condition_2 <fct>, Bldg_Type <fct>,
    ## #   House_Style <fct>, Overall_Cond <fct>, Year_Built <int>,
    ## #   Year_Remod_Add <int>, Roof_Style <fct>, Roof_Matl <fct>,
    ## #   Exterior_1st <fct>, Exterior_2nd <fct>, Mas_Vnr_Type <fct>,
    ## #   Mas_Vnr_Area <dbl>, Exter_Cond <fct>, Foundation <fct>, Bsmt_Cond <fct>,
    ## #   Bsmt_Exposure <fct>, BsmtFin_Type_1 <fct>, BsmtFin_SF_1 <dbl>, …
    ## # ℹ Use `print(n = ...)` to see more rows, and `colnames()` to see all variable names
…
    ## <Training/Validation/Total>
    ## <1756/586/2342>

## Bootstrap sampling

``` r
set.seed(2022)
boot_samples <- bootstraps(data = ames_train, 
                           times = 5)
assessment(boot_samples$splits[[1]])
```

    ## # A tibble: 847 × 74
    ##    MS_Sub…¹ MS_Zo…² Lot_F…³ Lot_A…⁴ Street Alley Lot_S…⁵ Land_…⁶ Utili…⁷ Lot_C…⁸
    ##    <fct>    <fct>     <dbl>   <int> <fct>  <fct> <fct>   <fct>   <fct>   <fct>  
    ##  1 One_Sto… Reside…      70    8400 Pave   No_A… Regular Lvl     AllPub  Corner 
    ##  2 Two_Sto… Reside…      21    1680 Pave   No_A… Regular Lvl     AllPub  Inside 
    ##  3 One_Sto… Reside…      53    4043 Pave   No_A… Regular Lvl     AllPub  Inside 
    ##  4 One_Sto… Reside…      24    2280 Pave   No_A… Regular Lvl     AllPub  FR2    
    ##  5 Duplex_… Reside…      68    8930 Pave   No_A… Regular Lvl     AllPub  Inside 
    ##  6 Duplex_… Reside…      98   13260 Pave   No_A… Slight… Lvl     AllPub  Inside 
    ##  7 One_Sto… Reside…      80    9920 Pave   No_A… Regular Lvl     AllPub  Inside 
    ##  8 Two_Fam… Reside…      70   13587 Pave   No_A… Regular Lvl     AllPub  Inside 
    ##  9 One_Sto… Reside…      68    7922 Pave   No_A… Regular Lvl     AllPub  Inside 
    ## 10 One_Sto… Reside…      65    7898 Pave   No_A… Regular Lvl     AllPub  Corner 
    ## # … with 837 more rows, 64 more variables: Land_Slope <fct>,
    ## #   Neighborhood <fct>, Condition_1 <fct>, Condition_2 <fct>, Bldg_Type <fct>,
    ## #   House_Style <fct>, Overall_Cond <fct>, Year_Built <int>,
    ## #   Year_Remod_Add <int>, Roof_Style <fct>, Roof_Matl <fct>,
    ## #   Exterior_1st <fct>, Exterior_2nd <fct>, Mas_Vnr_Type <fct>,
    ## #   Mas_Vnr_Area <dbl>, Exter_Cond <fct>, Foundation <fct>, Bsmt_Cond <fct>,
    ## #   Bsmt_Exposure <fct>, BsmtFin_Type_1 <fct>, BsmtFin_SF_1 <dbl>, …
    ## # ℹ Use `print(n = ...)` to see more rows, and `colnames()` to see all variable names
…
Get predictions for each assessment (fold):

``` r
assess_res <- collect_predictions(x = rf_res, 
                                  summarize = T)
assess_res
```

    ## # A tibble: 2,342 × 4
    ##     .row Sale_Price .config              .pred
    ##    <int>      <dbl> <chr>                <dbl>
    ##  1     1       5.02 Preprocessor1_Model1  5.09
    ##  2     2       5.10 Preprocessor1_Model1  5.01
    ##  3     3       5.06 Preprocessor1_Model1  5.06
    ##  4     4       5.02 Preprocessor1_Model1  5.01
    ##  5     5       4.94 Preprocessor1_Model1  5.02
    ##  6     6       5.11 Preprocessor1_Model1  5.14
    ##  7     7       5.08 Preprocessor1_Model1  5.11
    ##  8     8       5.00 Preprocessor1_Model1  5.13
    ##  9     9       5.10 Preprocessor1_Model1  5.07
    ## 10    10       4.83 Preprocessor1_Model1  5.00
    ## # … with 2,332 more rows
    ## # ℹ Use `print(n = ...)` to see more rows
…
