Rent dataset - Sliding windows with slider
…
--- Download complete ---

tuesdata

Available datasets:
    rent 
    sf_permits 
    new_construction 

Take the Rent data.

rent <- tuesdata$rent
rent

# A tibble: 200,796 × 17
   post_id         date  year nhood city  county price  beds baths  sqft room_…¹
   <chr>          <dbl> <dbl> <chr> <chr> <chr>  <dbl> <dbl> <dbl> <dbl>   <dbl>
 1 pre2013_1341… 2.01e7  2005 alam… alam… alame…  1250     2     2    NA       0
 2 pre2013_1356… 2.01e7  2005 alam… alam… alame…  1295     2    NA    NA       0
 3 pre2013_1271… 2.00e7  2004 alam… alam… alame…  1100     2    NA    NA       0
 4 pre2013_68671 2.01e7  2012 alam… alam… alame…  1425     1    NA   735       0
 5 pre2013_1275… 2.00e7  2004 alam… alam… alame…   890     1    NA    NA       0
 6 pre2013_1523… 2.01e7  2006 alam… alam… alame…   825     1    NA    NA       0
 7 pre2013_27543 2.01e7  2007 alam… alam… alame…  1500     1     1    NA       0
 8 6379096957    2.02e7  2017 alam… alam… alame…  2925     3    NA    NA       0
 9 pre2013_6254  2.01e7  2009 alam… alam… alame…   450    NA     1    NA       0
10 pre2013_1522… 2.01e7  2006 alam… alam… alame…  1395     2    NA    NA       0
# … with 200,786 more rows, 6 more variables: address <chr>, lat <dbl>,
#   lon <dbl>, title <chr>, descr <chr>, details <chr>, and abbreviated
#   variable name ¹​room_in_apt
# ℹ Use `print(n = ...)` to see more rows, and `colnames()` to see all variable names
…
