Finally, no more iris flowers: presenting penguins!
…
Predictions on testing data

collect_predictions(penguin_final)

Predictions on testing data

collect_predictions(penguin_final) %>% 
  select(-.config)

# A tibble: 101 × 6
   id               .pred_female .pred_male  .row .pred_class sex   
   <chr>                   <dbl>      <dbl> <int> <fct>       <fct> 
 1 train/test split      0.990      0.00990    14 female      female
 2 train/test split      0.784      0.216      16 female      female
 3 train/test split      0.700      0.300      18 female      female
 4 train/test split      0.210      0.790      19 male        male  
 5 train/test split      0.00461    0.995      25 male        male  
 6 train/test split      0.0285     0.972      31 male        male  
 7 train/test split      0.0696     0.930      33 male        female
 8 train/test split      0.996      0.00401    40 female      female
 9 train/test split      0.0293     0.971      44 male        male  
10 train/test split      0.00938    0.991      48 male        male  
# … with 91 more rows
# ℹ Use `print(n = ...)` to see more rows
…
